com\prueba\inditex\controller\model\dto\input\PruebaInditexControllerIDTO$PruebaInditexControllerIDTOBuilder.class
com\prueba\inditex\repository\model\Brands.class
com\prueba\inditex\service\mapper\PruebaInditexServiceMapper.class
com\prueba\inditex\controller\model\dto\output\PruebaInditexControllerODTO.class
com\prueba\inditex\controller\mapper\PruebaInditexControllerMapper.class
com\prueba\inditex\controller\model\dto\input\PruebaInditexControllerIDTO.class
com\prueba\inditex\service\impl\PruebaInditexServiceImpl.class
com\prueba\inditex\service\mapper\PruebaInditexServiceMapperImpl.class
com\prueba\inditex\service\PruebaInditexService.class
com\prueba\inditex\controller\mapper\PruebaInditexControllerMapperImpl.class
com\prueba\inditex\service\dto\output\PruebaInditexServiceODTO$PruebaInditexServiceODTOBuilder.class
com\prueba\inditex\service\dto\output\PruebaInditexServiceODTO.class
com\prueba\inditex\controller\impl\PruebaInditexControllerImpl.class
com\prueba\inditex\controller\model\dto\output\PruebaInditexControllerODTO$PruebaInditexControllerODTOBuilder.class
com\prueba\inditex\repository\model\PruebaInditexRepositoryMO.class
com\prueba\inditex\service\dto\input\PruebaInditexServiceIDTO$PruebaInditexServiceIDTOBuilder.class
com\prueba\inditex\controller\PruebaInditexController.class
com\prueba\inditex\repository\PruebaInditexRepository.class
com\prueba\inditex\PruebaInditexApp.class
com\prueba\inditex\service\dto\input\PruebaInditexServiceIDTO.class
